<svg xmlns="http://www.w3.org/2000/svg" viewBox="-2726.545 -5393.236 56.263 64.586">
  <defs>
    <style>
      .cls-1 {
        fill: #f1f1f1;
      }

      .cls-1, .cls-2, .cls-4 {
        stroke: #95989a;
      }

      .cls-2 {
        fill: none;
      }

      .cls-3, .cls-4 {
        fill: #fff;
      }
    </style>
  </defs>
  <g id="левое_зааднее_крыло" data-name="левое зааднее крыло" transform="translate(-2726.045 -5392.77)">
    <path id="Path_57_1_" class="cls-1" d="M.5.5C8.82,3.737,22.138,9.9,29.578,15.636H41.164c7.1,0,12.665,3.862,12.665,10.734v1.079a13.966,13.966,0,0,1-2.783,8.15,9.76,9.76,0,0,1,4.714,8.377,17.9,17.9,0,0,1-.653,3.862H45.651a1.927,1.927,0,0,0-1.9,1.931c0,1.079.852,1.931,1.505,1.732H51.87c-.028,0-.2.028-.227.028-1.448.17-3.294,1.9-5.339,1.9H18.418c.2-2.13.426-3.01.426-4.288,0-10.081-8.15-18.884-18.231-18.884H.5M24.666,15.21,1.693,14.982A26.563,26.563,0,0,0,.5,12.114V2.829C7.429,5.072,16.771,8.962,24.666,15.21ZM46.56,23.984h5.566c2.357,10.081-5.793,10.734-5.793,10.734Z" transform="translate(-0.498 -0.5)"/>
    <path id="Path_92" data-name="Path 92" class="cls-1" d="M.4,19.75A15.652,15.652,0,0,0,15.99,4.075,15.67,15.67,0,0,0,.4-11.6" transform="translate(-0.4 43.87)"/>
    <path id="Path_93" data-name="Path 93" class="cls-1" d="M34.4,22.5V34.54a6.021,6.021,0,0,0,0-12.04Z" transform="translate(-34.4 19.453)"/>
    <path id="Path_94" data-name="Path 94" class="cls-1" d="M6.066,167.4a15.317,15.317,0,0,1-1.533,2.385A4.445,4.445,0,0,1,2.8,170.978" transform="translate(48.544 -120.005)"/>
    <path id="Path_95" data-name="Path 95" class="cls-1" d="M195.1,145.55v-9.627m0-12.04V114.2" transform="translate(-195.098 -81.913)"/>
    <line id="Line_49" data-name="Line 49" class="cls-2" y1="52.904" transform="translate(0.002 0)"/>
    <path id="Path_96" data-name="Path 96" class="cls-3" d="M9.044,24.7H4.393l-.2,9.7a6.514,6.514,0,0,0,4.552-3.266C10.155,28.322,9.044,24.7,9.044,24.7Z" transform="translate(42.146 -0.749)"/>
    <path id="Path_97" data-name="Path 97" class="cls-3" d="M11.085,0H2.771L.2,1.089,0,22.07A94.807,94.807,0,0,0,6.532,11.381,91.219,91.219,0,0,0,11.085,0Z" transform="translate(0.518 14.153) rotate(-90)"/>
    <path id="Path_112" data-name="Path 112" class="cls-4" d="M45.945,23.37v-2.4h5.561v2.4Z" transform="translate(0.1 -0.6)"/>
  </g>
</svg>
