<svg xmlns="http://www.w3.org/2000/svg" viewBox="-2886.996 -5388.447 90.998 57.011">
  <defs>
    <style>
      .cls-1 {
        fill: #f1f1f1;
      }

      .cls-1, .cls-2, .cls-3 {
        stroke: #95989a;
      }

      .cls-2 {
        fill: #fff;
      }

      .cls-3 {
        fill: none;
      }
    </style>
  </defs>
  <g id="левая_боковая_честь_" data-name="левая боковая честь " transform="translate(-2886.498 -5387.933)">
    <path id="Path_57_1_" class="cls-1" d="M6.749,14.979s3.524-2.44,7.846-5.33C20.257,5.883,27.281,1.382,29.3.813c3.547-.948,53.891.166,57.156.734A26.21,26.21,0,0,1,90.5,2.827V4.888a60.907,60.907,0,0,0-6.7-1.706,22.986,22.986,0,0,1,6.7,7.083V28.34A15.543,15.543,0,0,0,77.061,43.809a34.061,34.061,0,0,0,.352,3.767H13.867c.164-1.777.352-2.511.352-3.577,0-7.96-6.014-14.948-13.719-15.682V16.045ZM36.231,2.637C29.254,2.353,18.753,10.052,14.6,13.345c-1.128.9-1.809,1.469-1.809,1.469l1.809.024,38.316.332L53.1,2.637H36.231Zm41.722.355-22.2-.19.188,12.532,33.547.19S85.941,3.537,77.953,2.993ZM17.038,46.131H74.383a.856.856,0,0,0,.869-.876.876.876,0,0,0-.869-.9H17.038a.886.886,0,0,0-.869.877A.876.876,0,0,0,17.038,46.131Z" transform="translate(-0.498 -0.445)"/>
    <path id="Path_82" data-name="Path 82" class="cls-1" d="M196,27.416A13.091,13.091,0,0,0,196,1.5" transform="translate(-196 28.537)"/>
    <path id="Path_83" data-name="Path 83" class="cls-1" d="M230,45.828a5.048,5.048,0,0,0,0-9.428" transform="translate(-230 1.904)"/>
    <path id="Path_84" data-name="Path 84" class="cls-1" d="M-127.812,1.4A13.038,13.038,0,0,0-139.3,14.382a13.006,13.006,0,0,0,11.488,13.005" transform="translate(217.81 28.613)"/>
    <path id="Path_85" data-name="Path 85" class="cls-1" d="M-139.3,40.885a5.052,5.052,0,0,0,3.5,4.809V36.1a4.951,4.951,0,0,0-2.044,1.256A5.018,5.018,0,0,0-139.3,40.885Z" transform="translate(225.798 2.133)"/>
    <path id="Path_86" data-name="Path 86" class="cls-1" d="M38.162,63.8S37.9,72.07,35.32,74.676c-.564.569-5.779,2.772-7.987,6.349a26.085,26.085,0,0,0-3.665,10.684.647.647,0,0,1-.658.592L4.522,92.206,4.545,63.4l33.523.237C38.162,63.661,38.209,63.732,38.162,63.8Z" transform="translate(50.875 -48.486)"/>
    <path id="Path_87" data-name="Path 87" class="cls-1" d="M162.78,61.817A17.615,17.615,0,0,0,160.807,68c-.211,2.132-.728,7.746,1.48,11.323a29.857,29.857,0,0,1,4.064,11.158.647.647,0,0,0,.658.592l36.107-.095V62.173l-40.242-.4C162.827,61.746,162.8,61.77,162.78,61.817Z" transform="translate(-150.727 -47.235)"/>
    <path id="Path_88" data-name="Path 88" class="cls-1" d="M294.547,49.05c-1.41.426-6.531.071-6.531.071s2.866-2.322,3.759-2.322S295.393,48.814,294.547,49.05Z" transform="translate(-272.251 -35.819)"/>
    <path id="Path_89" data-name="Path 89" class="cls-2" d="M170.21,88.814H175.9a1.022,1.022,0,0,0,1.01-1.019h0a1,1,0,0,0-1.01-.995H170.21a1.017,1.017,0,0,0-1.01.995h0A1.055,1.055,0,0,0,170.21,88.814Z" transform="translate(-126.537 -66.343)"/>
    <path id="Path_90" data-name="Path 90" class="cls-2" d="M14.688,88.814h5.662a1,1,0,0,0,.987-1.019h0a1,1,0,0,0-.987-.995H14.688a1,1,0,0,0-.987.995h0A.987.987,0,0,0,14.688,88.814Z" transform="translate(65.563 -66.343)"/>
    <path id="Path_91" data-name="Path 91" class="cls-1" d="M383.6,127.2v25.94" transform="translate(-383.598 -97.173)"/>
    <line id="Line_47" data-name="Line 47" class="cls-3" y1="53.609" transform="translate(90 2.382)"/>
    <line id="Line_48" data-name="Line 48" class="cls-3" y1="40.366" transform="translate(0.002 15.601)"/>
  </g>
</svg>
