<svg xmlns="http://www.w3.org/2000/svg" viewBox="-3025.8 -5256.5 91.632 75">
  <defs>
    <style>
      .cls-1 {
        fill: #f1f1f1;
      }

      .cls-1, .cls-2, .cls-3, .cls-4 {
        stroke: #9b9b9b;
        stroke-miterlimit: 10;
      }

      .cls-2, .cls-6 {
        fill: #fff;
      }

      .cls-3, .cls-5, .cls-8 {
        fill: none;
      }

      .cls-4 {
        fill: #b6b6b6;
      }

      .cls-5, .cls-6 {
        stroke: #95989a;
      }

      .cls-7 {
        stroke: none;
      }
    </style>
  </defs>
  <g id="открытый_багажник" data-name="открытый багажник" transform="translate(-3363 -5708.611)">
    <g id="багажник" transform="translate(337.996 452.611)">
      <g id="Group_266" data-name="Group 266" transform="translate(2.096 61.685)">
        <path id="Path_101" data-name="Path 101" class="cls-1" d="M1871.4,1273.831c0,.2.329.366.738.366h11.479c.408,0,.738-.165.738-.366v-11.465c0-.2-.33-.366-.738-.366h-11.479c-.408,0-.738.165-.738.366Z" transform="translate(-1799.231 -1261.882)"/>
        <path id="Path_102" data-name="Path 102" class="cls-1" d="M44.582,1270.831c0,.2-.235.366-.643.366h-11.4c-.4,0-.734-.165-.734-.366v-11.465c0-.2.326-.366.581-.366h11.4c.557,0,.792.157.792.366v11.465Z" transform="translate(-31.8 -1259)"/>
      </g>
      <path id="Path_103" data-name="Path 103" class="cls-1" d="M46.721,55.227H69.008a3.4,3.4,0,0,1,1.883.727,3.6,3.6,0,0,1,.506,1.817c.008.6-.789,2.324-.581,2.324H84.293a3.709,3.709,0,0,0,1.954-1.235c1.024-1.246,1.357-4.73,2.319-6.028.122-.165.541-.334.651-.507a14.149,14.149,0,0,0,1.157-4.647,56.559,56.559,0,0,0-.071-9,14.4,14.4,0,0,0-.726-3.92c-.432-.845-2.111-1.95-2.609-2.76-1.142-1.848-1.844-6.315-2.986-8.159a5.353,5.353,0,0,0-.918-.967c-.177-.145-.667-.283-.773-.484-1.907-3.629-3.511-6.259-4.951-9.047-.832-1.608-5.583-6.723-6.881-7.435C65.348,3.1,46.768,3,46.768,3h-.09s-18.576.1-23.7,2.9c-1.3.708-6.053,5.823-6.885,7.435-1.44,2.788-3.044,5.418-4.951,9.047-.106.2-.6.338-.773.484a5.485,5.485,0,0,0-.918.967c-1.146,1.848-1.844,6.315-2.986,8.159-.5.806-2.177,1.911-2.609,2.76a14.551,14.551,0,0,0-.726,3.92,56.1,56.1,0,0,0-.071,9,14.271,14.271,0,0,0,1.157,4.647c.114.173.53.342.651.507.961,1.3,1.295,4.781,2.319,6.028a3.724,3.724,0,0,0,1.954,1.235H22.621c.208,0-.588-1.726-.581-2.324a3.68,3.68,0,0,1,.506-1.817,3.407,3.407,0,0,1,1.883-.727H46.721" transform="translate(-1.948 9.302)"/>
      <g id="Group_267" data-name="Group 267" transform="translate(7.2 34.784)">
        <path id="Path_104" data-name="Path 104" class="cls-2" d="M130.535,584.637c-4.657.037-9.707-.011-12.62.007-.859.007,1.27-9.844,2.868-9.844h5.449c.056,0,1.52,3.414,1.52,3.414Z" transform="translate(-117.718 -574.8)"/>
        <line id="Line_51" data-name="Line 51" class="cls-2" x2="8.754" transform="translate(1.221 3.417)"/>
      </g>
      <g id="Group_268" data-name="Group 268" transform="translate(68.863 34.821)">
        <path id="Path_105" data-name="Path 105" class="cls-2" d="M1768.8,585.636c4.657.037,9.707-.011,12.62.007.859.008-1.27-9.844-2.868-9.844H1773.1c-.056,0-1.52,3.414-1.52,3.414Z" transform="translate(-1768.801 -575.8)"/>
        <line id="Line_52" data-name="Line 52" class="cls-2" x1="8.751" transform="translate(2.842 3.417)"/>
      </g>
      <path id="Path_106" data-name="Path 106" class="cls-2" d="M351.107,44.9c.691.024,28.6,1.007,30.981,1.5,1.507.311-5.673-9.586-7.222-10.525C373.594,35.1,358.055,32.6,351.1,32.6c-6.4,0-21.483,1.9-23.755,3.275-1.41.859-7.435,9.128-7.419,10.418,0,.08.061.135.2.107,2.4-.5,30.577-1.482,30.989-1.5h-.008" transform="translate(-306.331 -19.135)"/>
      <g id="Group_269" data-name="Group 269" transform="translate(22.144 65.519)">
        <ellipse id="Ellipse_33" data-name="Ellipse 33" class="cls-3" cx="1.765" cy="1.769" rx="1.765" ry="1.769" transform="translate(0 0.118)"/>
        <ellipse id="Ellipse_34" data-name="Ellipse 34" class="cls-3" cx="1.765" cy="1.769" rx="1.765" ry="1.769" transform="translate(4.472 0.157)"/>
        <ellipse id="Ellipse_35" data-name="Ellipse 35" class="cls-3" cx="1.765" cy="1.769" rx="1.765" ry="1.769" transform="translate(37.545)"/>
        <ellipse id="Ellipse_36" data-name="Ellipse 36" class="cls-3" cx="1.765" cy="1.769" rx="1.765" ry="1.769" transform="translate(42.017 0.039)"/>
      </g>
      <g id="Group_270" data-name="Group 270" transform="translate(2.21 22.245)">
        <path id="Path_109" data-name="Path 109" class="cls-1" d="M43.1,259.879a.715.715,0,0,1-.714.716H35.414a.715.715,0,0,1-.714-.716v-3.263a.715.715,0,0,1,.714-.716h6.971a.715.715,0,0,1,.714.716Z" transform="translate(-34.7 -255.9)"/>
        <path id="Path_110" data-name="Path 110" class="cls-1" d="M1988.6,259.879a.715.715,0,0,0,.714.716h6.972a.715.715,0,0,0,.714-.716v-3.263a.715.715,0,0,0-.714-.716h-6.972a.715.715,0,0,0-.714.716Z" transform="translate(-1911.946 -255.9)"/>
      </g>
      <path id="Path_111" data-name="Path 111" class="cls-4" d="M291.661,346.931,290.5,349.1l6.944,16.742.734.924,1.271.606h46.407l1.287-.613.741-.936,7.034-16.942-.844-1.938L322.846,345.5Z" transform="translate(-278.291 -318.798)"/>
      <path id="Path_107" data-name="Path 107" class="cls-1" d="M285.139,347.4l-3.639,1.716,3.232,3.9,8.089,19.5.975,1.227,1.689.8h61.648l1.709-.815.985-1.243,8.146-19.62,3.527-4.053-3.45-1.408L326.566,345.5Z" transform="translate(-281.5 -345.5)"/>
      <line id="Line_53" data-name="Line 53" class="cls-5" x2="83.385" transform="translate(3.11 7.471)"/>
    </g>
    <g id="Rectangle_128" data-name="Rectangle 128" class="cls-6" transform="translate(342.059 516.052)">
      <rect class="cls-7" width="12.175" height="3.051" rx="1.525"/>
      <rect class="cls-8" x="0.5" y="0.5" width="11.175" height="2.051" rx="1.025"/>
    </g>
    <g id="Rectangle_129" data-name="Rectangle 129" class="cls-6" transform="translate(411.052 516.052)">
      <rect class="cls-7" width="12.175" height="3.051" rx="1.525"/>
      <rect class="cls-8" x="0.5" y="0.5" width="11.175" height="2.051" rx="1.025"/>
    </g>
  </g>
</svg>
